{
    "name": "MaterialSalesProcessInformation",
    "fields": [
        {
            "fieldName": "salesOrganisationID",
            "fieldType": "String"
        },
        {
            "fieldName": "distributionChannelCode",
            "fieldType": "String"
        },
        {
            "fieldName": "distributionChannelCodeText",
            "fieldType": "String"
        },
        {
            "fieldName": "lifeCycleStatusCode",
            "fieldType": "String"
        },
        {
            "fieldName": "lifeCycleStatusCodeText",
            "fieldType": "String"
        },
        {
            "fieldName": "salesMeasureUnitCode",
            "fieldType": "String"
        },
        {
            "fieldName": "salesMeasureUnitCodeText",
            "fieldType": "String"
        },
        {
            "fieldName": "customerTrxDocItemProcessingTypeDeterminationProductGroupCode",
            "fieldType": "String"
        },
        {
            "fieldName": "customerTrxDocItemProcessingTypeDeterminationProductGroupCodeTxt",
            "fieldType": "String"
        },
        {
            "fieldName": "cashDiscountDeductibleIndicator",
            "fieldType": "Boolean"
        },
        {
            "fieldName": "minimumOrderQuantity",
            "fieldType": "Double"
        }
    ],
    "relationships": [
        {
            "relationshipType": "many-to-many",
            "otherEntityName": "material",
            "otherEntityRelationshipName": "materialSalesProcessInformation",
            "relationshipName": "material",
            "otherEntityField": "id",
            "ownerSide": false
        }
    ],
    "changelogDate": "20190802085323",
    "entityTableName": "material_sales_process_information",
    "dto": "no",
    "pagination": "pagination",
    "service": "serviceImpl",
    "jpaMetamodelFiltering": false,
    "fluentMethods": true,
    "clientRootFolder": "",
    "applications": "*"
}