id;country_code;country_code_text;region_code;region_code_text;tax_exemption_reason_code;tax_exemption_reason_code_text;tax_rate_type_code;tax_rate_type_code_text;tax_type_code;tax_type_code_text
1;TC;bandwidth;application Configurable iterate;Berkshire navigating;superstructure;streamline;Interactions;Fantastic time-frame Quality;Borders Borders Practical;methodical
2;GH;Danish Krone parse;neural Wooden Optimization;Tasty Rubber Car mindshare EXE;bandwidth Liaison;program Auto Loan Account Refined;infomediaries;Fantastic Fresh Salad;Steel Avon Visionary;exploit transition
3;SL;Interactions;Pennsylvania dynamic bandwidth;navigate Oklahoma;Triple-buffered array;Bedfordshire Tools;Arizona hack;Fresh payment synthesize;Versatile seize;asymmetric EXE
4;CY;Assistant Industrial;Arizona success Sleek Frozen Chips;Gorgeous Rubber Chicken Associate Central African Republic;magenta heuristic;Credit Card Account Maryland Legacy;Product;Brand Regional Court;B2B Mouse;Junctions one-to-one
5;ML;Fantastic;zero defect Ridges Beauty;groupware;Credit Card Account clear-thinking Frozen;parsing;models New Mexico District;Accountability;Aruba Chair portals;online Strategist Shirt
6;MO;disintermediate Assistant generating;Practical Steel Shirt Plastic Movies;SMS;Zimbabwe parse Customer;input Accounts;enhance Multi-channelled purple;Response;white SMTP;Checking Account global Steel
7;NO;Kyrgyz Republic transmit;solution connecting;California PNG engage;Burg;transmit Credit Card Account;digital Corporate Checking Account;seamless New York mesh;Unbranded array;Berkshire solid state
8;HT;Home Loan Account;CFP Franc back-end Via;Buckinghamshire Business-focused Canyon;Investment Account frictionless orchid;Future-proofed Awesome;Creek;Shirt Metal;Mouse Rupiah;Human Mission
9;NL;Soap teal Licensed Wooden Pants;e-business;Awesome;Kiribati;cyan innovative;open architecture alliance;online;Bulgarian Lev Cambridgeshire;Regional
10;AZ;systemic;Handmade Savings Account Manager;cultivate Bedfordshire;navigate Kiribati;bypass Games Customer-focused;Bond Markets Units European Composite Unit (EURCO) connecting generate;Refined;back-end enhance;optimal
